[
  "/app/account/automation",
  "/app/account/index",
  "/app/account/legal/credits",
  "/app/account/legal/privacy",
  "/app/account/legal/tos",
  "/app/account/messages/index",
  "/app/index",
  "/app/pages/location",
  "/app/pages/more",
  "/app/pages/test",
  "/auth/login",
  "/auth/logout",
  "/auth/setup/loading",
  "/auth/setup/terms",
  "/auth/setup",
  "/index"
]